…
    ## ── Column specification ────────────────────────────────────────────────────────
    ## Delimiter: ","
    ## chr (2): ...1, Length
    ## dbl (4): Two_Four_c_rep1, Two_Four_c_rep2, Four_Eight_c_rep1, Four_Eight_c_rep2

    ## 
    ## ℹ Use `spec()` to retrieve the full column specification for this data.
    ## ℹ Specify the column types or set `show_col_types = FALSE` to quiet this message.

``` r
print(read_counts)
```

    ## # A tibble: 15,544 × 6
    ##    ...1   Length Two_Four_c_rep1 Two_Four_c_rep2 Four_Eight_c_rep1
    ##    <chr>  <chr>            <dbl>           <dbl>             <dbl>
    ##  1 g00001 L                    0               0                 0
    ##  2 g00002 L                    0               0                 0
    ##  3 g00003 L                    0               0                 0
    ##  4 g00004 S                    1               0                 0
    ##  5 g00005 L                    0               0                 0
    ##  6 g00006 S                    0               0                 0
    ##  7 g00007 L                    0               0                 0
    ##  8 g00008 L                  880              94               626
    ##  9 g00009 S                 1414             116              1099
    ## 10 g00010 S                 2028             176              1718
    ## # … with 15,534 more rows, and 1 more variable: Four_Eight_c_rep2 <dbl>
…
``` r
read_counts_norm
```

    ## # A tibble: 15,544 × 10
    ## # Groups:   Length [2]
    ##    ...1   Length Two_Four_c_rep1 Two_Four_c_rep2 Four_Eight_c_rep1
    ##    <chr>  <chr>            <dbl>           <dbl>             <dbl>
    ##  1 g00001 L                    0               0                 0
    ##  2 g00002 L                    0               0                 0
    ##  3 g00003 L                    0               0                 0
    ##  4 g00004 S                    1               0                 0
    ##  5 g00005 L                    0               0                 0
    ##  6 g00006 S                    0               0                 0
    ##  7 g00007 L                    0               0                 0
    ##  8 g00008 L                  880              94               626
    ##  9 g00009 S                 1414             116              1099
    ## 10 g00010 S                 2028             176              1718
    ## # … with 15,534 more rows, and 5 more variables: Four_Eight_c_rep2 <dbl>,
    ## #   norm.Two_Four_c_rep1 <dbl>, norm.Two_Four_c_rep2 <dbl>,
    ## #   norm.Four_Eight_c_rep1 <dbl>, norm.Four_Eight_c_rep2 <dbl>
…
